B2_TrafficLight/wave.vcd
$date
	Sat Apr 11 02:49:55 2026
$end
$version
	Icarus Verilog
$end
$timescale
	1ms
$end
$scope module tb_TrafficLight $end
$var wire 7 ! led7seg_DonVi2 [6:0] $end
$var wire 7 " led7seg_DonVi1 [6:0] $end
$var wire 7 # led7seg_Chuc2 [6:0] $end
$var wire 7 $ led7seg_Chuc1 [6:0] $end
$var wire 6 % Q [5:0] $end
$var reg 1 & clk $end
$var reg 1 ' sw $end
$scope module uut $end
$var wire 1 & clk $end
$var wire 1 ' sw $end
$var wire 7 ( led7seg_DonVi2 [6:0] $end
$var wire 7 ) led7seg_DonVi1 [6:0] $end
$var wire 7 * led7seg_Chuc2 [6:0] $end
$var wire 7 + led7seg_Chuc1 [6:0] $end
$var parameter 6 , BlinkLight $end
$var parameter 6 - NoBlinkLight $end
$var parameter 3 . S1 $end
$var parameter 3 / S2 $end
$var parameter 3 0 S3 $end
$var parameter 3 1 S4 $end
$var parameter 3 2 S5 $end
$var parameter 3 3 S6 $end
$var parameter 5 4 TG $end
$var parameter 5 5 TR $end
$var parameter 5 6 TY $end
$var parameter 5 7 Time_Blink $end
$var parameter 5 8 Time_G $end
$var parameter 5 9 Time_R $end
$var parameter 5 : Time_Y $end
$var parameter 5 ; Time_YR $end
$var parameter 6 < l1 $end
$var parameter 6 = l2 $end
$var parameter 6 > l3 $end
$var parameter 6 ? l4 $end
$var reg 5 @ Chuc1 [4:0] $end
$var reg 5 A Chuc2 [4:0] $end
$var reg 3 B CurrentTime [2:0] $end
$var reg 5 C DonVi1 [4:0] $end
$var reg 5 D DonVi2 [4:0] $end
$var reg 3 E NextTime [2:0] $end
$var reg 6 F Q [5:0] $end
$var reg 5 G TRL1 [4:0] $end
$var reg 5 H TRL2 [4:0] $end
$var reg 5 I timer [4:0] $end
$scope module C1 $end
$var wire 1 ' sw $end
$var wire 5 J timer [4:0] $end
$var reg 7 K Q [6:0] $end
$upscope $end
$scope module C2 $end
$var wire 1 ' sw $end
$var wire 5 L timer [4:0] $end
$var reg 7 M Q [6:0] $end
$upscope $end
$scope module DV1 $end
$var wire 1 ' sw $end
$var wire 5 N timer [4:0] $end
$var reg 7 O Q [6:0] $end
$upscope $end
$scope module DV2 $end
$var wire 1 ' sw $end
$var wire 5 P timer [4:0] $end
$var reg 7 Q Q [6:0] $end
$upscope $end
$upscope $end
$upscope $end
$enddefinitions $end
$comment Show the parameter values. $end
$dumpall
b1100 ?
b1010 >
b10001 =
b100001 <
b101 ;
b101 :
b1111 9
b1111 8
b1 7
b101 6
b10100 5
b1111 4
b101 3
b100 2
b11 1
b10 0
b1 /
b0 .
b0 -
b10010 ,
$end
#0
$dumpvars
b1001111 Q
b1 P
b100000 O
b110 N
b10010 M
b10 L
b1001111 K
b1 J
b1111 I
b10101 H
b10000 G
b100001 F
bx E
b1 D
b110 C
bx00 B
b10 A
b1 @
b1001111 +
b10010 *
b100000 )
b1001111 (
0'
0&
b100001 %
b1001111 $
b10010 #
b100000 "
b1001111 !
$end
#500
b1 !
b1 (
b1 Q
b100100 "
b100100 )
b100100 O
b0 B
b0 D
b0 P
b101 C
b101 N
b0 E
b10100 H
b1111 G
1&
#1000
0&
#1500
b1001111 #
b1001111 *
b1001111 M
b100 !
b100 (
b100 Q
b1001000 "
b1001000 )
b1001000 O
b1 A
b1 L
b1001 D
b1001 P
b100 C
b100 N
b1110 I
b10011 H
b1110 G
1&
#2000
0&
#2500
b0 !
b0 (
b0 Q
b110 "
b110 )
b110 O
b1000 D
b1000 P
b11 C
b11 N
b1101 I
b10010 H
b1101 G
1&
#3000
0&
#3500
b1111 !
b1111 (
b1111 Q
b10010 "
b10010 )
b10010 O
b111 D
b111 P
b10 C
b10 N
b1100 I
b10001 H
b1100 G
1&
#4000
0&
#4500
b100000 !
b100000 (
b100000 Q
b1001111 "
b1001111 )
b1001111 O
b110 D
b110 P
b1 C
b1 N
b1011 I
b10000 H
b1011 G
1&
#5000
0&
#5500
b100100 !
b100100 (
b100100 Q
b1 "
b1 )
b1 O
b101 D
b101 P
b0 C
b0 N
b1010 I
b1111 H
b1010 G
1&
#6000
0&
#6500
b1001000 !
b1001000 (
b1001000 Q
b1 $
b1 +
b1 K
b100 "
b100 )
b100 O
b100 D
b100 P
b0 @
b0 J
b1001 C
b1001 N
b1001 I
b1110 H
b1001 G
1&
#7000
0&
#7500
b110 !
b110 (
b110 Q
b0 "
b0 )
b0 O
b11 D
b11 P
b1000 C
b1000 N
b1000 I
b1101 H
b1000 G
1&
#8000
0&
#8500
b10010 !
b10010 (
b10010 Q
b1111 "
b1111 )
b1111 O
b10 D
b10 P
b111 C
b111 N
b111 I
b1100 H
b111 G
1&
#9000
0&
#9500
b1001111 !
b1001111 (
b1001111 Q
b100000 "
b100000 )
b100000 O
b1 D
b1 P
b110 C
b110 N
b110 I
b1011 H
b110 G
1&
#10000
0&
#10500
b1 !
b1 (
b1 Q
b100100 "
b100100 )
b100100 O
b0 D
b0 P
b101 C
b101 N
b101 I
b1010 H
b101 G
1&
#11000
0&
#11500
b1 #
b1 *
b1 M
b100 !
b100 (
b100 Q
b1001000 "
b1001000 )
b1001000 O
b0 A
b0 L
b1001 D
b1001 P
b100 C
b100 N
b100 I
b1001 H
b100 G
1&
#12000
0&
#12500
b0 !
b0 (
b0 Q
b110 "
b110 )
b110 O
b1000 D
b1000 P
b11 C
b11 N
b11 I
b1000 H
b11 G
1&
#13000
0&
#13500
b1111 !
b1111 (
b1111 Q
b10010 "
b10010 )
b10010 O
b111 D
b111 P
b10 C
b10 N
b10 I
b111 H
b10 G
1&
#14000
0&
#14500
b100000 !
b100000 (
b100000 Q
b1001111 "
b1001111 )
b1001111 O
b110 D
b110 P
b1 C
b1 N
b1 I
b110 H
b1 G
1&
#15000
0&
#15500
b10001 %
b10001 F
b100100 !
b100100 (
b100100 Q
b100100 "
b100100 )
b100100 O
b1 B
b101 D
b101 P
b101 C
b101 N
b101 I
b1 E
b101 H
b101 G
1&
#16000
0&
#16500
b1001000 !
b1001000 (
b1001000 Q
b1001000 "
b1001000 )
b1001000 O
b100 D
b100 P
b100 C
b100 N
b100 I
b100 H
b100 G
1&
#17000
0&
#17500
b110 !
b110 (
b110 Q
b110 "
b110 )
b110 O
b11 D
b11 P
b11 C
b11 N
b11 I
b11 H
b11 G
1&
#18000
0&
#18500
b10010 !
b10010 (
b10010 Q
b10010 "
b10010 )
b10010 O
b10 D
b10 P
b10 C
b10 N
b10 I
b10 H
b10 G
1&
#19000
0&
#19500
b1001111 !
b1001111 (
b1001111 Q
b1001111 "
b1001111 )
b1001111 O
b1 D
b1 P
b1 C
b1 N
b1 I
b1 H
b1 G
1&
#20000
0&
#20500
b1010 %
b1010 F
b100100 !
b100100 (
b100100 Q
b10010 $
b10010 +
b10010 K
b1 "
b1 )
b1 O
b10 B
b101 D
b101 P
b10 @
b10 J
b0 C
b0 N
b101 I
b10 E
b101 H
b10100 G
1&
#21000
0&
#21500
b1001000 !
b1001000 (
b1001000 Q
b1001111 $
b1001111 +
b1001111 K
b100 "
b100 )
b100 O
b100 D
b100 P
b1 @
b1 J
b1001 C
b1001 N
b100 I
b100 H
b10011 G
1&
#22000
0&
#22500
b110 !
b110 (
b110 Q
b0 "
b0 )
b0 O
b11 D
b11 P
b1000 C
b1000 N
b11 I
b11 H
b10010 G
1&
#23000
0&
#23500
b10010 !
b10010 (
b10010 Q
b1111 "
b1111 )
b1111 O
b10 D
b10 P
b111 C
b111 N
b10 I
b10 H
b10001 G
1&
#24000
0&
#24500
b1001111 !
b1001111 (
b1001111 Q
b100000 "
b100000 )
b100000 O
b1 D
b1 P
b110 C
b110 N
b1 I
b1 H
b10000 G
1&
#25000
0&
#25500
b1100 %
b1100 F
b1001111 #
b1001111 *
b1001111 M
b100100 !
b100100 (
b100100 Q
b100100 "
b100100 )
b100100 O
b11 B
b1 A
b1 L
b101 D
b101 P
b101 C
b101 N
b1111 I
b11 E
b1111 H
b1111 G
1&
#26000
0&
#26500
b1001000 !
b1001000 (
b1001000 Q
b1001000 "
b1001000 )
b1001000 O
b100 D
b100 P
b100 C
b100 N
b1110 I
b1110 H
b1110 G
1&
#27000
0&
#27500
b110 !
b110 (
b110 Q
b110 "
b110 )
b110 O
b11 D
b11 P
b11 C
b11 N
b1101 I
b1101 H
b1101 G
1&
#28000
0&
#28500
b10010 !
b10010 (
b10010 Q
b10010 "
b10010 )
b10010 O
b10 D
b10 P
b10 C
b10 N
b1100 I
b1100 H
b1100 G
1&
#29000
0&
#29500
b1001111 !
b1001111 (
b1001111 Q
b1001111 "
b1001111 )
b1001111 O
b1 D
b1 P
b1 C
b1 N
b1011 I
b1011 H
b1011 G
1&
#30000
0&
#30500
b1 !
b1 (
b1 Q
b1 "
b1 )
b1 O
b0 D
b0 P
b0 C
b0 N
b1010 I
b1010 H
b1010 G
1&
#31000
0&
#31500
b1 #
b1 *
b1 M
b100 !
b100 (
b100 Q
b1 $
b1 +
b1 K
b100 "
b100 )
b100 O
b0 A
b0 L
b1001 D
b1001 P
b0 @
b0 J
b1001 C
b1001 N
b1001 I
b1001 H
b1001 G
1&
#32000
0&
#32500
b0 !
b0 (
b0 Q
b0 "
b0 )
b0 O
b1000 D
b1000 P
b1000 C
b1000 N
b1000 I
b1000 H
b1000 G
1&
#33000
0&
#33500
b1111 !
b1111 (
b1111 Q
b1111 "
b1111 )
b1111 O
b111 D
b111 P
b111 C
b111 N
b111 I
b111 H
b111 G
1&
#34000
0&
#34500
b100000 !
b100000 (
b100000 Q
b100000 "
b100000 )
b100000 O
b110 D
b110 P
b110 C
b110 N
b110 I
b110 H
b110 G
1&
#35000
0&
#35500
b100100 !
b100100 (
b100100 Q
b100100 "
b100100 )
b100100 O
b101 D
b101 P
b101 C
b101 N
b101 I
b101 H
b101 G
1&
#36000
0&
#36500
b1001000 !
b1001000 (
b1001000 Q
b1001000 "
b1001000 )
b1001000 O
b100 D
b100 P
b100 C
b100 N
b100 I
b100 H
b100 G
1&
#37000
0&
#37500
b110 !
b110 (
b110 Q
b110 "
b110 )
b110 O
b11 D
b11 P
b11 C
b11 N
b11 I
b11 H
b11 G
1&
#38000
0&
#38500
b10010 !
b10010 (
b10010 Q
b10010 "
b10010 )
b10010 O
b10 D
b10 P
b10 C
b10 N
b10 I
b10 H
b10 G
1&
#39000
0&
#39500
b1001111 !
b1001111 (
b1001111 Q
b1001111 "
b1001111 )
b1001111 O
b1 D
b1 P
b1 C
b1 N
b1 I
b1 H
b1 G
1&
#40000
0&
#40500
b100001 %
b100001 F
b10010 #
b10010 *
b10010 M
b1 !
b1 (
b1 Q
b1001111 $
b1001111 +
b1001111 K
b100100 "
b100100 )
b100100 O
b0 B
b10 A
b10 L
b0 D
b0 P
b1 @
b1 J
b101 C
b101 N
b1111 I
b0 E
b10100 H
b1111 G
1&
#41000
0&
#41500
b1001111 #
b1001111 *
b1001111 M
b100 !
b100 (
b100 Q
b1001000 "
b1001000 )
b1001000 O
b1 A
b1 L
b1001 D
b1001 P
b100 C
b100 N
b1110 I
b10011 H
b1110 G
1&
#42000
0&
#42500
b0 !
b0 (
b0 Q
b110 "
b110 )
b110 O
b1000 D
b1000 P
b11 C
b11 N
b1101 I
b10010 H
b1101 G
1&
#43000
0&
#43500
b1111 !
b1111 (
b1111 Q
b10010 "
b10010 )
b10010 O
b111 D
b111 P
b10 C
b10 N
b1100 I
b10001 H
b1100 G
1&
#44000
0&
#44500
b100000 !
b100000 (
b100000 Q
b1001111 "
b1001111 )
b1001111 O
b110 D
b110 P
b1 C
b1 N
b1011 I
b10000 H
b1011 G
1&
#45000
0&
#45500
b100100 !
b100100 (
b100100 Q
b1 "
b1 )
b1 O
b101 D
b101 P
b0 C
b0 N
b1010 I
b1111 H
b1010 G
1&
#46000
0&
#46500
b1001000 !
b1001000 (
b1001000 Q
b1 $
b1 +
b1 K
b100 "
b100 )
b100 O
b100 D
b100 P
b0 @
b0 J
b1001 C
b1001 N
b1001 I
b1110 H
b1001 G
1&
#47000
0&
#47500
b110 !
b110 (
b110 Q
b0 "
b0 )
b0 O
b11 D
b11 P
b1000 C
b1000 N
b1000 I
b1101 H
b1000 G
1&
#48000
0&
#48500
b10010 !
b10010 (
b10010 Q
b1111 "
b1111 )
b1111 O
b10 D
b10 P
b111 C
b111 N
b111 I
b1100 H
b111 G
1&
#49000
0&
#49500
b1001111 !
b1001111 (
b1001111 Q
b100000 "
b100000 )
b100000 O
b1 D
b1 P
b110 C
b110 N
b110 I
b1011 H
b110 G
1&
#50000
b1111111 $
b1111111 +
b1111111 K
b1111111 #
b1111111 *
b1111111 M
b1111111 "
b1111111 )
b1111111 O
b1111111 !
b1111111 (
b1111111 Q
0&
1'
#50500
b10010 %
b10010 F
b100 B
b10 A
b10 L
b0 D
b0 P
b1 @
b1 J
b101 C
b101 N
b100 E
b10100 H
b1111 G
1&
#51000
0&
#51500
b0 %
b0 F
b101 B
b101 E
1&
#52000
0&
#52500
b10010 %
b10010 F
b100 B
b100 E
1&
#53000
0&
#53500
b0 %
b0 F
b101 B
b101 E
1&
#54000
0&
#54500
b10010 %
b10010 F
b100 B
b100 E
1&
#55000
0&
#55500
b0 %
b0 F
b101 B
b101 E
1&
#56000
0&
#56500
b10010 %
b10010 F
b100 B
b100 E
1&
#57000
0&
#57500
b0 %
b0 F
b101 B
b101 E
1&
#58000
0&
#58500
b10010 %
b10010 F
b100 B
b100 E
1&
#59000
0&
#59500
b0 %
b0 F
b101 B
b101 E
1&
#60000
0&
#60500
b10010 %
b10010 F
b100 B
b100 E
1&
#61000
0&
#61500
b0 %
b0 F
b101 B
b101 E
1&
#62000
0&
#62500
b10010 %
b10010 F
b100 B
b100 E
1&
#63000
0&
#63500
b0 %
b0 F
b101 B
b101 E
1&
#64000
0&
#64500
b10010 %
b10010 F
b100 B
b100 E
1&
#65000
b1001111 $
b1001111 +
b1001111 K
b10010 #
b10010 *
b10010 M
b100100 "
b100100 )
b100100 O
b1 !
b1 (
b1 Q
0&
0'
#65500
b100001 %
b100001 F
b1001111 #
b1001111 *
b1001111 M
b100 !
b100 (
b100 Q
b1001000 "
b1001000 )
b1001000 O
b0 B
b1 A
b1 L
b1001 D
b1001 P
b100 C
b100 N
b1111 I
b0 E
b10011 H
b1110 G
1&
#66000
0&
#66500
b0 !
b0 (
b0 Q
b110 "
b110 )
b110 O
b1000 D
b1000 P
b11 C
b11 N
b1110 I
b10010 H
b1101 G
1&
#67000
0&
#67500
b1111 !
b1111 (
b1111 Q
b10010 "
b10010 )
b10010 O
b111 D
b111 P
b10 C
b10 N
b1101 I
b10001 H
b1100 G
1&
#68000
0&
#68500
b100000 !
b100000 (
b100000 Q
b1001111 "
b1001111 )
b1001111 O
b110 D
b110 P
b1 C
b1 N
b1100 I
b10000 H
b1011 G
1&
#69000
0&
#69500
b100100 !
b100100 (
b100100 Q
b1 "
b1 )
b1 O
b101 D
b101 P
b0 C
b0 N
b1011 I
b1111 H
b1010 G
1&
#70000
0&
#70500
b1001000 !
b1001000 (
b1001000 Q
b1 $
b1 +
b1 K
b100 "
b100 )
b100 O
b100 D
b100 P
b0 @
b0 J
b1001 C
b1001 N
b1010 I
b1110 H
b1001 G
1&
#71000
0&
#71500
b110 !
b110 (
b110 Q
b0 "
b0 )
b0 O
b11 D
b11 P
b1000 C
b1000 N
b1001 I
b1101 H
b1000 G
1&
#72000
0&
#72500
b10010 !
b10010 (
b10010 Q
b1111 "
b1111 )
b1111 O
b10 D
b10 P
b111 C
b111 N
b1000 I
b1100 H
b111 G
1&
#73000
0&
#73500
b1001111 !
b1001111 (
b1001111 Q
b100000 "
b100000 )
b100000 O
b1 D
b1 P
b110 C
b110 N
b111 I
b1011 H
b110 G
1&
#74000
0&
#74500
b1 !
b1 (
b1 Q
b100100 "
b100100 )
b100100 O
b0 D
b0 P
b101 C
b101 N
b110 I
b1010 H
b101 G
1&
#75000
0&
#75500
b1 #
b1 *
b1 M
b100 !
b100 (
b100 Q
b1001000 "
b1001000 )
b1001000 O
b0 A
b0 L
b1001 D
b1001 P
b100 C
b100 N
b101 I
b1001 H
b100 G
1&
#76000
0&
#76500
b0 !
b0 (
b0 Q
b110 "
b110 )
b110 O
b1000 D
b1000 P
b11 C
b11 N
b100 I
b1000 H
b11 G
1&
#77000
0&
#77500
b1111 !
b1111 (
b1111 Q
b10010 "
b10010 )
b10010 O
b111 D
b111 P
b10 C
b10 N
b11 I
b111 H
b10 G
1&
#78000
0&
#78500
b100000 !
b100000 (
b100000 Q
b1001111 "
b1001111 )
b1001111 O
b110 D
b110 P
b1 C
b1 N
b10 I
b110 H
b1 G
1&
#79000
0&
#79500
b100100 !
b100100 (
b100100 Q
b1 "
b1 )
b1 O
b101 D
b101 P
b0 C
b0 N
b1 I
b101 H
b0 G
1&
#80000
0&
#80500
b10001 %
b10001 F
b1001000 !
b1001000 (
b1001000 Q
b100100 "
b100100 )
b100100 O
b1 B
b100 D
b100 P
b101 C
b101 N
b101 I
b1 E
b100 H
b101 G
1&
#81000
0&
#81500
b110 !
b110 (
b110 Q
b1001000 "
b1001000 )
b1001000 O
b11 D
b11 P
b100 C
b100 N
b100 I
b11 H
b100 G
1&
#82000
0&
#82500
b10010 !
b10010 (
b10010 Q
b110 "
b110 )
b110 O
b10 D
b10 P
b11 C
b11 N
b11 I
b10 H
b11 G
1&
#83000
0&
#83500
b1001111 !
b1001111 (
b1001111 Q
b10010 "
b10010 )
b10010 O
b1 D
b1 P
b10 C
b10 N
b10 I
b1 H
b10 G
1&
#84000
0&
#84500
b1 !
b1 (
b1 Q
b1001111 "
b1001111 )
b1001111 O
b0 D
b0 P
b1 C
b1 N
b1 I
b0 H
b1 G
1&
#85000
0&
#85500
b1010 %
b1010 F
b100100 !
b100100 (
b100100 Q
b10010 $
b10010 +
b10010 K
b1 "
b1 )
b1 O
b10 B
b101 D
b101 P
b10 @
b10 J
b0 C
b0 N
b101 I
b10 E
b101 H
b10100 G
1&
#86000
0&
#86500
b1001000 !
b1001000 (
b1001000 Q
b1001111 $
b1001111 +
b1001111 K
b100 "
b100 )
b100 O
b100 D
b100 P
b1 @
b1 J
b1001 C
b1001 N
b100 I
b100 H
b10011 G
1&
#87000
0&
#87500
b110 !
b110 (
b110 Q
b0 "
b0 )
b0 O
b11 D
b11 P
b1000 C
b1000 N
b11 I
b11 H
b10010 G
1&
#88000
0&
#88500
b10010 !
b10010 (
b10010 Q
b1111 "
b1111 )
b1111 O
b10 D
b10 P
b111 C
b111 N
b10 I
b10 H
b10001 G
1&
#89000
0&
#89500
b1001111 !
b1001111 (
b1001111 Q
b100000 "
b100000 )
b100000 O
b1 D
b1 P
b110 C
b110 N
b1 I
b1 H
b10000 G
1&
#90000
0&
#90500
b1100 %
b1100 F
b1001111 #
b1001111 *
b1001111 M
b100100 !
b100100 (
b100100 Q
b100100 "
b100100 )
b100100 O
b11 B
b1 A
b1 L
b101 D
b101 P
b101 C
b101 N
b1111 I
b11 E
b1111 H
b1111 G
1&
#91000
0&
#91500
b1001000 !
b1001000 (
b1001000 Q
b1001000 "
b1001000 )
b1001000 O
b100 D
b100 P
b100 C
b100 N
b1110 I
b1110 H
b1110 G
1&
#92000
0&
#92500
b110 !
b110 (
b110 Q
b110 "
b110 )
b110 O
b11 D
b11 P
b11 C
b11 N
b1101 I
b1101 H
b1101 G
1&
#93000
0&
#93500
b10010 !
b10010 (
b10010 Q
b10010 "
b10010 )
b10010 O
b10 D
b10 P
b10 C
b10 N
b1100 I
b1100 H
b1100 G
1&
#94000
0&
#94500
b1001111 !
b1001111 (
b1001111 Q
b1001111 "
b1001111 )
b1001111 O
b1 D
b1 P
b1 C
b1 N
b1011 I
b1011 H
b1011 G
1&
#95000
0&
#95500
b1 !
b1 (
b1 Q
b1 "
b1 )
b1 O
b0 D
b0 P
b0 C
b0 N
b1010 I
b1010 H
b1010 G
1&
#96000
0&
#96500
b1 #
b1 *
b1 M
b100 !
b100 (
b100 Q
b1 $
b1 +
b1 K
b100 "
b100 )
b100 O
b0 A
b0 L
b1001 D
b1001 P
b0 @
b0 J
b1001 C
b1001 N
b1001 I
b1001 H
b1001 G
1&
#97000
0&
#97500
b0 !
b0 (
b0 Q
b0 "
b0 )
b0 O
b1000 D
b1000 P
b1000 C
b1000 N
b1000 I
b1000 H
b1000 G
1&
#98000
0&
#98500
b1111 !
b1111 (
b1111 Q
b1111 "
b1111 )
b1111 O
b111 D
b111 P
b111 C
b111 N
b111 I
b111 H
b111 G
1&
#99000
0&
#99500
b100000 !
b100000 (
b100000 Q
b100000 "
b100000 )
b100000 O
b110 D
b110 P
b110 C
b110 N
b110 I
b110 H
b110 G
1&
#100000
0&
#100500
b100100 !
b100100 (
b100100 Q
b100100 "
b100100 )
b100100 O
b101 D
b101 P
b101 C
b101 N
b101 I
b101 H
b101 G
1&
#101000
0&
#101500
b1001000 !
b1001000 (
b1001000 Q
b1001000 "
b1001000 )
b1001000 O
b100 D
b100 P
b100 C
b100 N
b100 I
b100 H
b100 G
1&
#102000
0&
#102500
b110 !
b110 (
b110 Q
b110 "
b110 )
b110 O
b11 D
b11 P
b11 C
b11 N
b11 I
b11 H
b11 G
1&
#103000
0&
#103500
b10010 !
b10010 (
b10010 Q
b10010 "
b10010 )
b10010 O
b10 D
b10 P
b10 C
b10 N
b10 I
b10 H
b10 G
1&
#104000
0&
#104500
b1001111 !
b1001111 (
b1001111 Q
b1001111 "
b1001111 )
b1001111 O
b1 D
b1 P
b1 C
b1 N
b1 I
b1 H
b1 G
1&
#105000
0&
#105500
b100001 %
b100001 F
b10010 #
b10010 *
b10010 M
b1 !
b1 (
b1 Q
b1001111 $
b1001111 +
b1001111 K
b100100 "
b100100 )
b100100 O
b0 B
b10 A
b10 L
b0 D
b0 P
b1 @
b1 J
b101 C
b101 N
b1111 I
b0 E
b10100 H
b1111 G
1&
#106000
0&
#106500
b1001111 #
b1001111 *
b1001111 M
b100 !
b100 (
b100 Q
b1001000 "
b1001000 )
b1001000 O
b1 A
b1 L
b1001 D
b1001 P
b100 C
b100 N
b1110 I
b10011 H
b1110 G
1&
#107000
0&
#107500
b0 !
b0 (
b0 Q
b110 "
b110 )
b110 O
b1000 D
b1000 P
b11 C
b11 N
b1101 I
b10010 H
b1101 G
1&
#108000
0&
#108500
b1111 !
b1111 (
b1111 Q
b10010 "
b10010 )
b10010 O
b111 D
b111 P
b10 C
b10 N
b1100 I
b10001 H
b1100 G
1&
#109000
0&
#109500
b100000 !
b100000 (
b100000 Q
b1001111 "
b1001111 )
b1001111 O
b110 D
b110 P
b1 C
b1 N
b1011 I
b10000 H
b1011 G
1&
#110000
0&
#110500
b100100 !
b100100 (
b100100 Q
b1 "
b1 )
b1 O
b101 D
b101 P
b0 C
b0 N
b1010 I
b1111 H
b1010 G
1&
#111000
0&
#111500
b1001000 !
b1001000 (
b1001000 Q
b1 $
b1 +
b1 K
b100 "
b100 )
b100 O
b100 D
b100 P
b0 @
b0 J
b1001 C
b1001 N
b1001 I
b1110 H
b1001 G
1&
#112000
0&
#112500
b110 !
b110 (
b110 Q
b0 "
b0 )
b0 O
b11 D
b11 P
b1000 C
b1000 N
b1000 I
b1101 H
b1000 G
1&
#113000
0&
#113500
b10010 !
b10010 (
b10010 Q
b1111 "
b1111 )
b1111 O
b10 D
b10 P
b111 C
b111 N
b111 I
b1100 H
b111 G
1&
#114000
0&
#114500
b1001111 !
b1001111 (
b1001111 Q
b100000 "
b100000 )
b100000 O
b1 D
b1 P
b110 C
b110 N
b110 I
b1011 H
b110 G
1&
