B1_counter32bit/counter_32bit.vcd
$date
	Wed Apr  8 13:39:59 2026
$end
$version
	Icarus Verilog
$end
$timescale
	1s
$end
$scope module tb_32bit $end
$var wire 32 ! Q [31:0] $end
$var reg 1 " E $end
$var reg 1 # clk $end
$var reg 1 $ rs $end
$var reg 1 % ud $end
$scope module uut $end
$var wire 1 " E $end
$var wire 1 # clk $end
$var wire 1 $ rs $end
$var wire 1 % ud $end
$var reg 32 & Q [31:0] $end
$upscope $end
$upscope $end
$enddefinitions $end
$comment Show the parameter values. $end
$dumpall
$end
#0
$dumpvars
b0 &
1%
1$
0#
1"
b0 !
$end
#10
b1 !
b1 &
1#
#20
0#
#30
b10 !
b10 &
1#
#40
0#
#50
b1 !
b1 &
1#
0%
#60
0#
#70
b0 !
b0 &
1#
#80
0#
#90
b11111111111111111111111111111111 !
b11111111111111111111111111111111 &
1#
#100
0#
#110
b11111111111111111111111111111110 !
b11111111111111111111111111111110 &
1#
#120
0#
#130
b11111111111111111111111111111101 !
b11111111111111111111111111111101 &
1#
#140
0#
#150
1#
0"
